{
  "extends": ["tslint-react"],
  "linterOptions": {
    "exclude": [
      "**/*.spec.ts",
      "**/*.spec.tsx",
      "node_modules"
    ]
  },
  "rules": {
    "jsdoc-format": true,
    "no-redundant-jsdoc": false,
    "member-access": false,
    "ban-types": false,
    "prefer-for-of": false,
    "no-inferrable-types": false,
    "ordered-imports": false,
    "whitespace": false,
    "semicolon": false,
    "no-conditional-assignment": false,
    "prefer-conditional-expression": false,
    "no-non-null-assertion": false,
    "no-unnecessary-type-assertion": false,
    "no-import-side-effect": false,
    "trailing-comma": false,
    "no-uUnused-variables": false,
    "no-null-keyword": false,
    "no-console": false,
    "no-unbound-method": true,
    "no-floating-promises": false,
    "interface-over-type-literal": false,
    "jsx-key": false,
    "jsx-self-close": false,
    "jsx-curly-spacing": [true, "never"],
    "jsx-boolean-value": [true, "never"],
    "jsx-no-bind": false,
    "jsx-no-lambda": false,
    "jsx-no-multiline-js": false,
    "jsx-wrap-multiline": false,
    "space-within-parens": false
  }
}
